<?xml version="1.0" encoding="UTF-8"?>
<svg width="18px" height="16px" viewBox="0 0 18 16" version="1.1" xmlns="http://www.w3.org/2000/svg" xmlns:xlink="http://www.w3.org/1999/xlink">
    <!-- Generator: Sketch 61.2 (89653) - https://sketch.com -->
    <title>twitter-icon</title>
    <desc>Created with Sketch.</desc>
    <g id="Landings" stroke="none" stroke-width="1" fill="none" fill-rule="evenodd">
        <path d="M16.97,0.6 C16.2917041,1.04734576 15.5237493,1.34087516 14.72,1.46 L14.72,1.46 C14.0664837,0.704375134 13.1190007,0.267075296 12.12,0.26 C10.0562902,0.341314883 8.44680117,2.07598636 8.52,4.14 C8.51967698,4.4290338 8.54984389,4.71729541 8.61,5 L8.61,5 C5.59816941,4.86844109 2.80142486,3.40225784 0.98,1 C0.0477171335,2.74433935 0.5080546,4.90665846 2.07,6.12 C1.50954086,6.18087712 0.947193159,6.0232765 0.5,5.68 C0.406146841,7.44408122 1.56918382,9.02966041 3.28,9.47 C2.80235927,9.65524035 2.28101579,9.69694783 1.78,9.59 C2.15121932,11.0838083 3.46215033,12.1545376 5,12.22 C3.69928377,13.5458916 1.82998664,14.1478053 0,13.83 C1.6678583,14.9420413 3.62543297,15.5400925 5.63,15.55 C11.44,15.55 15.95,10.48 15.71,4.23 L15.71,4.23 C15.71,4.23 15.71,4.23 15.71,4.23 C15.71,4.23 15.71,4.23 15.71,4.17 C16.4250437,3.63118092 17.0208665,2.95024054 17.46,2.17 C16.8341751,2.4888257 16.1572312,2.69529359 15.46,2.78 C16.1914813,2.24120616 16.7227534,1.47420408 16.97,0.6 L16.97,0.6 Z" id="twitter-icon" fill="#000000" fill-rule="nonzero"></path>
    </g>
</svg>