<?xml version="1.0" encoding="UTF-8"?>
<svg width="90px" height="90px" viewBox="0 0 90 90" version="1.1" xmlns="http://www.w3.org/2000/svg" xmlns:xlink="http://www.w3.org/1999/xlink">
    <title>rocket</title>
    <g id="New-Red" stroke="none" stroke-width="1" fill="none" fill-rule="evenodd">
        <path d="M46.0819548,13.2138329 C56.2437513,3.02501036 72.6586502,-2.86033849 87.8903742,1.4172447 C88.2262879,1.51158061 88.4887447,1.77417837 88.5829003,2.11014259 C92.8481771,17.3294258 86.9630543,33.7276097 76.786613,43.9176002 L76.786613,43.9176002 L68.5913346,52.1006284 L65.2687954,74.1092774 C65.2432803,74.2782859 65.1749977,74.4372026 65.071354,74.5713601 L64.9871068,74.6671068 L49.9471068,89.7071068 C49.3330904,90.3211231 48.2820344,89.914513 48.2411111,89.0471276 L48.2411111,89.0471276 L47.4913346,73.1706284 L40.946613,79.7076002 C40.5860556,80.0676546 40.0191432,80.095163 39.627053,79.7902582 L39.5328932,79.7071068 L37.9393346,78.1136284 L27.728799,80.9631963 C27.4245792,81.0480949 27.1009847,80.9837709 26.8538483,80.7953722 L26.7528932,80.7071068 L17.593654,71.5477063 L15.900234,69.9044375 L9.29023395,63.2444375 C9.06857226,63.0210991 8.96677711,62.7086672 9.00954956,62.4020002 L9.0368037,62.271201 L11.8853346,52.0596284 L10.2928932,50.4671068 C9.93258717,50.1068007 9.90468314,49.5399077 10.2093142,49.1476048 L10.2923998,49.053387 L16.8283346,42.5066284 L0.952872379,41.7588889 C0.162707639,41.7216089 -0.245072621,40.846048 0.15277406,40.2262557 L0.218546169,40.1353418 L0.292893219,40.0528932 L15.3328932,25.0128932 C15.4839698,24.8618166 15.679462,24.7630984 15.8907226,24.7312046 L15.8907226,24.7312046 L37.8983346,21.4076284 Z M19.5871068,80.4028932 C19.9475907,80.7633772 19.9753203,81.3306082 19.6702954,81.7228994 L19.5871068,81.8171068 L12.5171068,88.8871068 C12.1265825,89.2776311 11.4934175,89.2776311 11.1028932,88.8871068 C10.7424093,88.5266228 10.7146797,87.9593918 11.0197046,87.5671006 L11.1028932,87.4728932 L18.1728932,80.4028932 C18.5634175,80.0123689 19.1965825,80.0123689 19.5871068,80.4028932 Z M11.1071068,78.9928932 C11.4675907,79.3533772 11.4953203,79.9206082 11.1902954,80.3128994 L11.1071068,80.4071068 L4.03710678,87.4771068 C3.64658249,87.8676311 3.01341751,87.8676311 2.62289322,87.4771068 C2.26240926,87.1166228 2.23467972,86.5493918 2.53970461,86.1571006 L2.62289322,86.0628932 L9.69289322,78.9928932 C10.0834175,78.6023689 10.7165825,78.6023689 11.1071068,78.9928932 Z M66.2083346,54.4806284 L49.4033346,71.2616284 L50.131,86.693 L63.34,73.484 L66.2083346,54.4806284 Z M9.50710678,70.2628932 C9.86759074,70.6233772 9.89532028,71.1906082 9.59029539,71.5828994 L9.50710678,71.6771068 L2.43710678,78.7471068 C2.04658249,79.1376311 1.41341751,79.1376311 1.02289322,78.7471068 C0.662409257,78.3866228 0.634679722,77.8193918 0.939704612,77.4271006 L1.02289322,77.3328932 L8.09289322,70.2628932 C8.48341751,69.8723689 9.11658249,69.8723689 9.50710678,70.2628932 Z M13.5093346,53.6836284 L11.119,62.248 L17.306346,68.4822937 L18.9971068,70.1228932 L27.754,78.879 L36.3153346,76.4896284 L13.5093346,53.6836284 Z M19.2783346,42.8836284 L12.414,49.759 L40.24,77.585 L47.1143346,70.7196284 L19.2783346,42.8836284 Z M38.2903346,23.8456284 L20.6923346,41.4686284 L48.5303346,69.3066284 L66.1533346,51.7086284 L38.2903346,23.8456284 Z M37.6527561,41.0331667 C40.7769504,37.9089723 45.8422702,37.9089723 48.9664646,41.0331667 C52.0906589,44.157361 52.0906589,49.2226808 48.9664646,52.3468752 C45.8422702,55.4710695 40.7769504,55.4710695 37.6527561,52.3468752 C34.5285617,49.2226808 34.5285617,44.157361 37.6527561,41.0331667 Z M47.552251,42.4473802 C45.2091052,40.1042345 41.4101154,40.1042345 39.0669696,42.4473802 C36.7238239,44.790526 36.7238239,48.5895159 39.0669696,50.9326616 C41.4101154,53.2758074 45.2091052,53.2758074 47.552251,50.9326616 C49.8953967,48.5895159 49.8953967,44.790526 47.552251,42.4473802 Z M86.3837875,3.08630352 C72.1935584,-0.466233448 56.9722157,5.12679939 47.4976002,14.626613 L47.4976002,14.626613 L39.7033346,22.4296284 L67.5683346,50.2946284 L75.3724229,42.5033638 C84.7533815,33.109914 90.3267874,18.1384735 87.0299962,4.09866155 L86.9127904,3.61490924 L86.804,3.194 Z M35.5203346,23.7896284 L16.515,26.659 L3.306,39.868 L18.7373346,40.5956284 L35.5203346,23.7896284 Z" id="rocket" fill="#ED1E45" fill-rule="nonzero"></path>
    </g>
</svg>